Projeto 4 - Máquina de Estados em Esquemático/Circuito/simulation/qsim/MaquinaDeEstados.msim.vcd
$comment
	File created using the following command:
		vcd file MaquinaDeEstados.msim.vcd -direction
$end
$date
	Sun Oct 28 10:38:12 2018
$end
$version
	ModelSim Version 10.5b
$end
$timescale
	1ps
$end

$scope module MaquinaDeEstados3_vlg_vec_tst $end
$var reg 1 ! clk $end
$var reg 1 " down $end
$var reg 1 # reset $end
$var reg 1 $ up $end
$var wire 1 % S0 $end
$var wire 1 & S1 $end
$var wire 1 ' S2 $end
$var wire 1 ( S3 $end

$scope module i1 $end
$var wire 1 ) gnd $end
$var wire 1 * vcc $end
$var wire 1 + unknown $end
$var tri1 1 , devclrn $end
$var tri1 1 - devpor $end
$var tri1 1 . devoe $end
$var wire 1 / S3~output_o $end
$var wire 1 0 S2~output_o $end
$var wire 1 1 S1~output_o $end
$var wire 1 2 S0~output_o $end
$var wire 1 3 reset~input_o $end
$var wire 1 4 clk~input_o $end
$var wire 1 5 down~input_o $end
$var wire 1 6 up~input_o $end
$var wire 1 7 inst2|inst8|inst2~3_combout $end
$var wire 1 8 inst2|inst8|inst2~2_combout $end
$var wire 1 9 inst2|inst3|inst2~4_combout $end
$var wire 1 : inst2|inst2|inst2~0_combout $end
$var wire 1 ; inst2|inst3|inst2~2_combout $end
$var wire 1 < inst2|inst6~combout $end
$var wire 1 = inst2|inst3|inst2~3_combout $end
$var wire 1 > inst2|inst3|inst1~1_combout $end
$var wire 1 ? inst2|inst3|inst3~1_combout $end
$var wire 1 @ inst2|inst3|inst3~combout $end
$var wire 1 A inst2|inst3|inst4~combout $end
$var wire 1 B inst2|inst8|inst2~4_combout $end
$var wire 1 C inst2|inst8|inst2~6_combout $end
$var wire 1 D inst2|inst8|inst2~5_combout $end
$var wire 1 E inst2|inst8|inst3~combout $end
$var wire 1 F inst2|inst8|inst1~1_combout $end
$var wire 1 G inst2|inst8|inst4~combout $end
$var wire 1 H inst2|inst7~combout $end
$var wire 1 I inst2|inst4~combout $end
$var wire 1 J inst2|inst|inst2~2_combout $end
$var wire 1 K inst2|inst|inst2~0_combout $end
$var wire 1 L inst2|inst|inst2~1_combout $end
$var wire 1 M inst2|inst|inst1~1_combout $end
$var wire 1 N inst2|inst|inst3~1_combout $end
$var wire 1 O inst2|inst|inst3~combout $end
$var wire 1 P inst2|inst|inst4~combout $end
$var wire 1 Q inst2|inst2|inst2~4_combout $end
$var wire 1 R inst2|inst2|inst2~1_combout $end
$var wire 1 S inst2|inst2|inst2~2_combout $end
$var wire 1 T inst2|inst2|inst2~3_combout $end
$var wire 1 U inst2|inst2|inst3~combout $end
$var wire 1 V inst2|inst2|inst3~1_combout $end
$var wire 1 W inst2|inst2|inst1~1_combout $end
$var wire 1 X inst2|inst2|inst4~combout $end
$var wire 1 Y inst|inst17~0_combout $end
$var wire 1 Z inst|inst1~combout $end
$var wire 1 [ inst|inst5~0_combout $end
$var wire 1 \ inst|inst5~1_combout $end
$var wire 1 ] inst|inst9~0_combout $end
$var wire 1 ^ inst|inst9~1_combout $end
$var wire 1 _ inst|inst16~combout $end
$upscope $end
$upscope $end
$enddefinitions $end
#0
$dumpvars
0!
0"
1#
1$
0%
1&
1'
0(
0)
1*
x+
1,
1-
1.
0/
10
11
02
13
04
05
16
07
08
09
0:
x;
1<
0=
0>
1?
0@
xA
1B
0C
0D
0E
0F
xG
1H
1I
1J
xK
0L
0M
0N
0O
xP
0Q
xR
xS
0T
0U
1V
0W
xX
0Y
0Z
x[
1\
x]
1^
0_
$end
#5000
1!
14
1U
1M
1E
1@
1X
0P
1G
1A
0]
0[
0K
1;
1R
1S
#10000
0!
04
0U
0M
0E
0@
#15000
1!
14
1U
1M
1E
1@
#20000
0#
0!
03
04
1T
0I
0B
0U
0M
0E
0@
1_
0^
0\
00
01
12
0V
0J
1%
0&
0'
1Z
1/
1N
1(
#25000
1!
14
1W
1O
1E
1@
0X
1P
1Y
0S
1K
0R
1I
1B
0_
02
1Q
0T
1J
0%
0Z
0/
0(
#30000
0!
04
0W
0O
0E
0@
0N
#35000
1!
14
1W
1M
1E
1@
0P
1]
1R
0Q
0I
0B
0;
18
0J
19
1^
11
1&
#40000
0!
04
0W
0M
0E
0@
1V
1N
0?
#45000
1!
14
1U
1O
1E
1>
1X
1P
0A
0]
1[
0Y
1S
1;
08
0R
1Q
1I
0<
09
0Q
1T
1=
0S
1J
0^
1\
10
01
0T
0&
1'
#50000
0!
04
0U
0O
0E
0>
0N
#55000
1!
14
1U
1M
1E
1>
0P
1]
1R
0I
1S
0J
1^
11
1T
1&
#60000
0!
04
0U
0M
0E
0>
0V
1N
#65000
1!
14
1W
1O
1E
1>
0X
1P
0]
1Y
0S
0R
1I
1_
12
1Q
0T
1J
1%
0^
01
0&
#70000
0!
04
0W
0O
0E
0>
0N
#75000
1!
14
1W
1M
1E
1>
0P
1]
0[
1R
0Q
0I
0;
18
0J
0=
1D
1^
0\
00
11
1&
0'
#80000
0!
04
0W
0M
0E
0>
1V
1N
1?
#85000
1!
14
1U
1O
1F
1@
1X
1P
0G
1A
0]
0Y
1S
1;
08
0R
1Q
1I
0H
1<
19
0_
02
0Q
0D
09
0S
0%
0^
1Z
1/
01
0&
1(
#90000
0!
04
0U
0O
0F
0@
#95000
1!
14
1U
1O
1E
1@
1G
1]
1[
0K
1H
1B
1J
1^
1\
0Z
0/
10
11
1&
1'
0(
#100000
0!
04
0U
0O
0E
0@
0N
#105000
1!
14
1U
1M
1E
1@
0P
0]
0[
1R
0I
0B
1_
12
1S
0J
1%
0^
0\
1Z
1/
00
01
1T
0&
0'
1(
#110000
0!
04
0U
0M
0E
0@
0V
1N
#115000
1!
14
1W
1O
1E
1@
0X
1P
1Y
0S
1K
0R
1I
1B
0_
02
1Q
0T
1J
0%
0Z
0/
0(
#120000
0!
04
0W
0O
0E
0@
0N
#125000
1!
14
1W
1M
1E
1@
0P
1]
1R
0Q
0I
0B
0;
18
0J
19
1^
11
1&
#130000
0!
04
0W
0M
0E
0@
1V
1N
0?
#135000
1!
14
1U
1O
1E
1>
1X
1P
0A
0]
1[
0Y
1S
1;
08
0R
1Q
1I
0<
09
0Q
1T
1=
0S
1J
0^
1\
10
01
0T
0&
1'
#140000
0!
04
0U
0O
0E
0>
0N
#145000
1!
14
1U
1M
1E
1>
0P
1]
1R
0I
1S
0J
1^
11
1T
1&
#150000
0!
04
0U
0M
0E
0>
0V
1N
#155000
1!
14
1W
1O
1E
1>
0X
1P
0]
1Y
0S
0R
1I
1_
12
1Q
0T
1J
1%
0^
01
0&
#160000
0!
04
0W
0O
0E
0>
0N
#165000
1!
14
1W
1M
1E
1>
0P
1]
0[
1R
0Q
0I
0;
18
0J
0=
1D
1^
0\
00
11
1&
0'
#170000
0!
04
0W
0M
0E
0>
1V
1N
1?
#175000
1!
14
1U
1O
1F
1@
1X
1P
0G
1A
0]
0Y
1S
1;
08
0R
1Q
1I
0H
1<
19
0_
02
0Q
0D
09
0S
0%
0^
1Z
1/
01
0&
1(
#180000
0!
04
0U
0O
0F
0@
#185000
1!
14
1U
1O
1E
1@
1G
1]
1[
0K
1H
1B
1J
1^
1\
0Z
0/
10
11
1&
1'
0(
#190000
0!
04
0U
0O
0E
0@
0N
#195000
1!
14
1U
1M
1E
1@
0P
0]
0[
1R
0I
0B
1_
12
1S
0J
1%
0^
0\
1Z
1/
00
01
1T
0&
0'
1(
#200000
0!
04
0U
0M
0E
0@
0V
1N
#205000
1!
14
1W
1O
1E
1@
0X
1P
1Y
0S
1K
0R
1I
1B
0_
02
1Q
0T
1J
0%
0Z
0/
0(
#210000
0!
04
0W
0O
0E
0@
0N
#215000
1!
14
1W
1M
1E
1@
0P
1]
1R
0Q
0I
0B
0;
18
0J
19
1^
11
1&
#220000
0!
04
0W
0M
0E
0@
1V
1N
0?
#225000
1!
14
1U
1O
1E
1>
1X
1P
0A
0]
1[
0Y
1S
1;
08
0R
1Q
1I
0<
09
0Q
1T
1=
0S
1J
0^
1\
10
01
0T
0&
1'
#230000
0!
04
0U
0O
0E
0>
0N
#235000
1!
14
1U
1M
1E
1>
0P
1]
1R
0I
1S
0J
1^
11
1T
1&
#240000
1"
0!
15
04
0R
1J
0;
17
0U
0M
0E
0>
0S
0=
1D
0V
0T
1?
1V
#245000
1!
14
1U
1M
1F
1@
0G
1A
0H
1<
1_
12
1%
1Z
1/
1(
#250000
0!
04
0U
0M
0F
0@
#255000
1!
14
1U
1M
1F
1@
#260000
0!
04
0U
0M
0F
0@
#265000
1!
14
1U
1M
1F
1@
#270000
0!
04
0U
0M
0F
0@
#275000
1!
14
1U
1M
1F
1@
#280000
0!
04
0U
0M
0F
0@
#285000
1!
14
1U
1M
1F
1@
#290000
0!
04
0U
0M
0F
0@
#295000
1!
14
1U
1M
1F
1@
#300000
0!
04
0U
0M
0F
0@
#305000
1!
14
1U
1M
1F
1@
#310000
0"
0!
05
04
1R
0J
1;
07
0U
0M
0F
0@
1S
1N
0D
#315000
1!
14
1U
1O
1E
1@
1P
1G
0R
1I
1B
1T
0K
1H
0_
02
0S
1J
0%
0Z
0/
0T
0(
#320000
0!
04
0U
0O
0E
0@
0N
#325000
1!
14
1U
1M
1E
1@
0P
0]
0[
1R
0I
0B
1_
12
1S
0J
1%
0^
0\
1Z
1/
00
01
1T
0&
0'
1(
#330000
0!
04
0U
0M
0E
0@
0V
1N
#335000
1!
14
1W
1O
1E
1@
0X
1P
1Y
0S
1K
0R
1I
1B
0_
02
1Q
0T
1J
0%
0Z
0/
0(
#340000
0!
04
0W
0O
0E
0@
0N
#345000
1!
14
1W
1M
1E
1@
0P
1]
1R
0Q
0I
0B
0;
18
0J
19
1^
11
1&
#350000
0!
04
0W
0M
0E
0@
1V
1N
0?
#355000
1!
14
1U
1O
1E
1>
1X
1P
0A
0]
1[
0Y
1S
1;
08
0R
1Q
1I
0<
09
0Q
1T
1=
0S
1J
0^
1\
10
01
0T
0&
1'
#360000
0!
04
0U
0O
0E
0>
0N
#365000
1!
14
1U
1M
1E
1>
0P
1]
1R
0I
1S
0J
1^
11
1T
1&
#370000
0!
04
0U
0M
0E
0>
0V
1N
#375000
1!
14
1W
1O
1E
1>
0X
1P
0]
1Y
0S
0R
1I
1_
12
1Q
0T
1J
1%
0^
01
0&
#380000
0!
04
0W
0O
0E
0>
0N
#385000
1!
14
1W
1M
1E
1>
0P
1]
0[
1R
0Q
0I
0;
18
0J
0=
1D
1^
0\
00
11
1&
0'
#390000
0!
04
0W
0M
0E
0>
1V
1N
1?
#395000
1!
14
1U
1O
1F
1@
1X
1P
0G
1A
0]
0Y
1S
1;
08
0R
1Q
1I
0H
1<
19
0_
02
0Q
0D
09
0S
0%
0^
1Z
1/
01
0&
1(
#400000
0!
04
0U
0O
0F
0@
#405000
1!
14
1U
1O
1E
1@
1G
1]
1[
0K
1H
1B
1J
1^
1\
0Z
0/
10
11
1&
1'
0(
#410000
0!
04
0U
0O
0E
0@
0N
#415000
1!
14
1U
1M
1E
1@
0P
0]
0[
1R
0I
0B
1_
12
1S
0J
1%
0^
0\
1Z
1/
00
01
1T
0&
0'
1(
#420000
0!
04
0U
0M
0E
0@
0V
1N
#425000
1!
14
1W
1O
1E
1@
0X
1P
1Y
0S
1K
0R
1I
1B
0_
02
1Q
0T
1J
0%
0Z
0/
0(
#430000
0!
04
0W
0O
0E
0@
0N
#435000
1!
14
1W
1M
1E
1@
0P
1]
1R
0Q
0I
0B
0;
18
0J
19
1^
11
1&
#440000
0!
04
0W
0M
0E
0@
1V
1N
0?
#445000
1!
14
1U
1O
1E
1>
1X
1P
0A
0]
1[
0Y
1S
1;
08
0R
1Q
1I
0<
09
0Q
1T
1=
0S
1J
0^
1\
10
01
0T
0&
1'
#450000
0!
04
0U
0O
0E
0>
0N
#455000
1!
14
1U
1M
1E
1>
0P
1]
1R
0I
1S
0J
1^
11
1T
1&
#460000
0!
04
0U
0M
0E
0>
0V
1N
#465000
1!
14
1W
1O
1E
1>
0X
1P
0]
1Y
0S
0R
1I
1_
12
1Q
0T
1J
1%
0^
01
0&
#470000
0!
04
0W
0O
0E
0>
0N
#475000
1!
14
1W
1M
1E
1>
0P
1]
0[
1R
0Q
0I
0;
18
0J
0=
1D
1^
0\
00
11
1&
0'
#480000
0!
04
0W
0M
0E
0>
1V
1N
1?
#485000
1!
14
1U
1O
1F
1@
1X
1P
0G
1A
0]
0Y
1S
1;
08
0R
1Q
1I
0H
1<
19
0_
02
0Q
0D
09
0S
0%
0^
1Z
1/
01
0&
1(
#490000
0!
04
0U
0O
0F
0@
#495000
1!
14
1U
1O
1E
1@
1G
1]
1[
0K
1H
1B
1J
1^
1\
0Z
0/
10
11
1&
1'
0(
#500000
0!
04
0U
0O
0E
0@
0N
#505000
1!
14
1U
1M
1E
1@
0P
0]
0[
1R
0I
0B
1_
12
1S
0J
1%
0^
0\
1Z
1/
00
01
1T
0&
0'
1(
#510000
0!
04
0U
0M
0E
0@
0V
1N
#515000
1!
14
1W
1O
1E
1@
0X
1P
1Y
0S
1K
0R
1I
1B
0_
02
1Q
0T
1J
0%
0Z
0/
0(
#520000
0!
04
0W
0O
0E
0@
0N
#525000
1!
14
1W
1M
1E
1@
0P
1]
1R
0Q
0I
0B
0;
18
0J
19
1^
11
1&
#530000
0!
04
0W
0M
0E
0@
1V
1N
0?
#535000
1!
14
1U
1O
1E
1>
1X
1P
0A
0]
1[
0Y
1S
1;
08
0R
1Q
1I
0<
09
0Q
1T
1=
0S
1J
0^
1\
10
01
0T
0&
1'
#540000
0!
04
0U
0O
0E
0>
0N
#545000
1!
14
1U
1M
1E
1>
0P
1]
1R
0I
1S
0J
1^
11
1T
1&
#550000
0!
04
0U
0M
0E
0>
0V
1N
#555000
1!
14
1W
1O
1E
1>
0X
1P
0]
1Y
0S
0R
1I
1_
12
1Q
0T
1J
1%
0^
01
0&
#560000
0!
04
0W
0O
0E
0>
0N
#565000
1!
14
1W
1M
1E
1>
0P
1]
0[
1R
0Q
0I
0;
18
0J
0=
1D
1^
0\
00
11
1&
0'
#570000
0!
04
0W
0M
0E
0>
1V
1N
1?
#575000
1!
14
1U
1O
1F
1@
1X
1P
0G
1A
0]
0Y
1S
1;
08
0R
1Q
1I
0H
1<
19
0_
02
0Q
0D
09
0S
0%
0^
1Z
1/
01
0&
1(
#580000
0!
04
0U
0O
0F
0@
#585000
1!
14
1U
1O
1E
1@
1G
1]
1[
0K
1H
1B
1J
1^
1\
0Z
0/
10
11
1&
1'
0(
#590000
0!
04
0U
0O
0E
0@
0N
#595000
1!
14
1U
1M
1E
1@
0P
0]
0[
1R
0I
0B
1_
12
1S
0J
1%
0^
0\
1Z
1/
00
01
1T
0&
0'
1(
#600000
0!
04
0U
0M
0E
0@
0V
1N
#605000
1!
14
1W
1O
1E
1@
0X
1P
1Y
0S
1K
0R
1I
1B
0_
02
1Q
0T
1J
0%
0Z
0/
0(
#610000
0!
04
0W
0O
0E
0@
0N
#615000
1!
14
1W
1M
1E
1@
0P
1]
1R
0Q
0I
0B
0;
18
0J
19
1^
11
1&
#620000
0!
04
0W
0M
0E
0@
1V
1N
0?
#625000
1!
14
1U
1O
1E
1>
1X
1P
0A
0]
1[
0Y
1S
1;
08
0R
1Q
1I
0<
09
0Q
1T
1=
0S
1J
0^
1\
10
01
0T
0&
1'
#630000
0!
04
0U
0O
0E
0>
0N
#635000
1!
14
1U
1M
1E
1>
0P
1]
1R
0I
1S
0J
1^
11
1T
1&
#640000
0!
04
0U
0M
0E
0>
0V
1N
#645000
1!
14
1W
1O
1E
1>
0X
1P
0]
1Y
0S
0R
1I
1_
12
1Q
0T
1J
1%
0^
01
0&
#650000
0!
04
0W
0O
0E
0>
0N
#655000
1!
14
1W
1M
1E
1>
0P
1]
0[
1R
0Q
0I
0;
18
0J
0=
1D
1^
0\
00
11
1&
0'
#660000
0!
04
0W
0M
0E
0>
1V
1N
1?
#665000
1!
14
1U
1O
1F
1@
1X
1P
0G
1A
0]
0Y
1S
1;
08
0R
1Q
1I
0H
1<
19
0_
02
0Q
0D
09
0S
0%
0^
1Z
1/
01
0&
1(
#670000
0!
04
0U
0O
0F
0@
#675000
1!
14
1U
1O
1E
1@
1G
1]
1[
0K
1H
1B
1J
1^
1\
0Z
0/
10
11
1&
1'
0(
#680000
0!
04
0U
0O
0E
0@
0N
#685000
1!
14
1U
1M
1E
1@
0P
0]
0[
1R
0I
0B
1_
12
1S
0J
1%
0^
0\
1Z
1/
00
01
1T
0&
0'
1(
#690000
0!
04
0U
0M
0E
0@
0V
1N
#695000
1!
14
1W
1O
1E
1@
0X
1P
1Y
0S
1K
0R
1I
1B
0_
02
1Q
0T
1J
0%
0Z
0/
0(
#700000
0!
04
0W
0O
0E
0@
0N
#705000
1!
14
1W
1M
1E
1@
0P
1]
1R
0Q
0I
0B
0;
18
0J
19
1^
11
1&
#710000
0!
04
0W
0M
0E
0@
1V
1N
0?
#715000
1!
14
1U
1O
1E
1>
1X
1P
0A
0]
1[
0Y
1S
1;
08
0R
1Q
1I
0<
09
0Q
1T
1=
0S
1J
0^
1\
10
01
0T
0&
1'
#720000
0!
04
0U
0O
0E
0>
0N
#725000
1!
14
1U
1M
1E
1>
0P
1]
1R
0I
1S
0J
1^
11
1T
1&
#730000
0!
04
0U
0M
0E
0>
0V
1N
#735000
1!
14
1W
1O
1E
1>
0X
1P
0]
1Y
0S
0R
1I
1_
12
1Q
0T
1J
1%
0^
01
0&
#740000
0!
04
0W
0O
0E
0>
0N
#745000
1!
14
1W
1M
1E
1>
0P
1]
0[
1R
0Q
0I
0;
18
0J
0=
1D
1^
0\
00
11
1&
0'
#750000
0!
04
0W
0M
0E
0>
1V
1N
1?
#755000
1!
14
1U
1O
1F
1@
1X
1P
0G
1A
0]
0Y
1S
1;
08
0R
1Q
1I
0H
1<
19
0_
02
0Q
0D
09
0S
0%
0^
1Z
1/
01
0&
1(
#760000
0!
04
0U
0O
0F
0@
#765000
1!
14
1U
1O
1E
1@
1G
1]
1[
0K
1H
1B
1J
1^
1\
0Z
0/
10
11
1&
1'
0(
#770000
0!
04
0U
0O
0E
0@
0N
#775000
1!
14
1U
1M
1E
1@
0P
0]
0[
1R
0I
0B
1_
12
1S
0J
1%
0^
0\
1Z
1/
00
01
1T
0&
0'
1(
#780000
0!
04
0U
0M
0E
0@
0V
1N
#785000
1!
14
1W
1O
1E
1@
0X
1P
1Y
0S
1K
0R
1I
1B
0_
02
1Q
0T
1J
0%
0Z
0/
0(
#790000
0!
04
0W
0O
0E
0@
0N
#795000
1!
14
1W
1M
1E
1@
0P
1]
1R
0Q
0I
0B
0;
18
0J
19
1^
11
1&
#800000
0!
04
0W
0M
0E
0@
1V
1N
0?
#805000
1!
14
1U
1O
1E
1>
1X
1P
0A
0]
1[
0Y
1S
1;
08
0R
1Q
1I
0<
09
0Q
1T
1=
0S
1J
0^
1\
10
01
0T
0&
1'
#810000
0!
04
0U
0O
0E
0>
0N
#815000
1!
14
1U
1M
1E
1>
0P
1]
1R
0I
1S
0J
1^
11
1T
1&
#820000
0!
04
0U
0M
0E
0>
0V
1N
#825000
1!
14
1W
1O
1E
1>
0X
1P
0]
1Y
0S
0R
1I
1_
12
1Q
0T
1J
1%
0^
01
0&
#830000
0!
04
0W
0O
0E
0>
0N
#835000
1!
14
1W
1M
1E
1>
0P
1]
0[
1R
0Q
0I
0;
18
0J
0=
1D
1^
0\
00
11
1&
0'
#840000
0!
04
0W
0M
0E
0>
1V
1N
1?
#845000
1!
14
1U
1O
1F
1@
1X
1P
0G
1A
0]
0Y
1S
1;
08
0R
1Q
1I
0H
1<
19
0_
02
0Q
0D
09
0S
0%
0^
1Z
1/
01
0&
1(
#850000
0!
04
0U
0O
0F
0@
#855000
1!
14
1U
1O
1E
1@
1G
1]
1[
0K
1H
1B
1J
1^
1\
0Z
0/
10
11
1&
1'
0(
#860000
0!
04
0U
0O
0E
0@
0N
#865000
1!
14
1U
1M
1E
1@
0P
0]
0[
1R
0I
0B
1_
12
1S
0J
1%
0^
0\
1Z
1/
00
01
1T
0&
0'
1(
#870000
0!
04
0U
0M
0E
0@
0V
1N
#875000
1!
14
1W
1O
1E
1@
0X
1P
1Y
0S
1K
0R
1I
1B
0_
02
1Q
0T
1J
0%
0Z
0/
0(
#880000
0!
04
0W
0O
0E
0@
0N
#885000
1!
14
1W
1M
1E
1@
0P
1]
1R
0Q
0I
0B
0;
18
0J
19
1^
11
1&
#890000
0!
04
0W
0M
0E
0@
1V
1N
0?
#895000
1!
14
1U
1O
1E
1>
1X
1P
0A
0]
1[
0Y
1S
1;
08
0R
1Q
1I
0<
09
0Q
1T
1=
0S
1J
0^
1\
10
01
0T
0&
1'
#900000
0!
04
0U
0O
0E
0>
0N
#905000
1!
14
1U
1M
1E
1>
0P
1]
1R
0I
1S
0J
1^
11
1T
1&
#910000
0!
04
0U
0M
0E
0>
0V
1N
#915000
1!
14
1W
1O
1E
1>
0X
1P
0]
1Y
0S
0R
1I
1_
12
1Q
0T
1J
1%
0^
01
0&
#920000
0!
04
0W
0O
0E
0>
0N
#925000
1!
14
1W
1M
1E
1>
0P
1]
0[
1R
0Q
0I
0;
18
0J
0=
1D
1^
0\
00
11
1&
0'
#930000
0!
04
0W
0M
0E
0>
1V
1N
1?
#935000
1!
14
1U
1O
1F
1@
1X
1P
0G
1A
0]
0Y
1S
1;
08
0R
1Q
1I
0H
1<
19
0_
02
0Q
0D
09
0S
0%
0^
1Z
1/
01
0&
1(
#940000
0!
04
0U
0O
0F
0@
#945000
1!
14
1U
1O
1E
1@
1G
1]
1[
0K
1H
1B
1J
1^
1\
0Z
0/
10
11
1&
1'
0(
#950000
0!
04
0U
0O
0E
0@
0N
#955000
1!
14
1U
1M
1E
1@
0P
0]
0[
1R
0I
0B
1_
12
1S
0J
1%
0^
0\
1Z
1/
00
01
1T
0&
0'
1(
#960000
0!
04
0U
0M
0E
0@
0V
1N
#965000
1!
14
1W
1O
1E
1@
0X
1P
1Y
0S
1K
0R
1I
1B
0_
02
1Q
0T
1J
0%
0Z
0/
0(
#970000
0!
04
0W
0O
0E
0@
0N
#975000
1!
14
1W
1M
1E
1@
0P
1]
1R
0Q
0I
0B
0;
18
0J
19
1^
11
1&
#980000
0!
04
0W
0M
0E
0@
1V
1N
0?
#985000
1!
14
1U
1O
1E
1>
1X
1P
0A
0]
1[
0Y
1S
1;
08
0R
1Q
1I
0<
09
0Q
1T
1=
0S
1J
0^
1\
10
01
0T
0&
1'
#990000
0!
04
0U
0O
0E
0>
0N
#995000
1!
14
1U
1M
1E
1>
0P
1]
1R
0I
1S
0J
1^
11
1T
1&
