Projeto 7 - Máquina de Estados em Verilog/Projeto em Verilog/simulation/qsim/Lab13.msim.vcd
$comment
	File created using the following command:
		vcd file Lab13.msim.vcd -direction
$end
$date
	Wed Dec 12 19:00:57 2018
$end
$version
	ModelSim Version 10.5b
$end
$timescale
	1ps
$end

$scope module Decodificador_vlg_vec_tst $end
$var reg 4 ! entrada [3:0] $end
$var wire 1 " segmentos [0] $end
$var wire 1 # segmentos [1] $end
$var wire 1 $ segmentos [2] $end
$var wire 1 % segmentos [3] $end
$var wire 1 & segmentos [4] $end
$var wire 1 ' segmentos [5] $end
$var wire 1 ( segmentos [6] $end

$scope module i1 $end
$var wire 1 ) gnd $end
$var wire 1 * vcc $end
$var wire 1 + unknown $end
$var tri1 1 , devclrn $end
$var tri1 1 - devpor $end
$var tri1 1 . devoe $end
$var wire 1 / segmentos[6]~output_o $end
$var wire 1 0 segmentos[5]~output_o $end
$var wire 1 1 segmentos[4]~output_o $end
$var wire 1 2 segmentos[3]~output_o $end
$var wire 1 3 segmentos[2]~output_o $end
$var wire 1 4 segmentos[1]~output_o $end
$var wire 1 5 segmentos[0]~output_o $end
$var wire 1 6 entrada[2]~input_o $end
$var wire 1 7 entrada[3]~input_o $end
$var wire 1 8 entrada[1]~input_o $end
$var wire 1 9 entrada[0]~input_o $end
$var wire 1 : WideOr6~0_combout $end
$var wire 1 ; WideOr5~0_combout $end
$var wire 1 < WideOr4~0_combout $end
$var wire 1 = WideOr3~0_combout $end
$var wire 1 > WideOr2~0_combout $end
$var wire 1 ? WideOr1~0_combout $end
$var wire 1 @ WideOr0~0_combout $end
$upscope $end
$upscope $end
$enddefinitions $end
#0
$dumpvars
b0 !
1(
0'
0&
0%
0$
0#
0"
0)
1*
x+
1,
1-
1.
1/
00
01
02
03
04
05
06
07
08
09
0:
0;
0<
0=
0>
0?
0@
$end
#10000
b1 !
19
1@
1=
1<
1;
10
11
12
15
1"
1%
1&
1'
#20000
b11 !
b10 !
09
18
1:
0@
1>
0=
0<
01
02
13
05
0/
0(
0"
1$
0%
0&
#30000
b11 !
19
0>
1<
11
03
0$
1&
#40000
b111 !
b101 !
b100 !
09
08
16
1@
1=
0;
00
12
15
1"
1%
0'
#50000
b101 !
19
0@
1?
0=
02
14
05
0"
1#
0%
#60000
b111 !
b110 !
09
18
0<
01
0&
#70000
b111 !
19
0:
0?
1=
1<
1;
10
11
12
04
1/
1(
0#
1%
1&
1'
#80000
b1111 !
b1011 !
b1001 !
b1000 !
09
08
06
17
1:
0=
0<
0;
00
01
02
0/
0(
0%
0&
0'
#90000
b1001 !
19
1<
11
1&
#100000
b1011 !
b1010 !
09
18
0:
1@
1?
1>
1=
1;
10
12
13
14
15
1/
1(
1"
1#
1$
1%
1'
#110000
b1011 !
19
#120000
b1111 !
b1101 !
b1100 !
09
08
16
#130000
b1101 !
19
#140000
b1111 !
b1110 !
09
18
#150000
b1111 !
19
#160000
b111 !
b11 !
b1 !
b0 !
09
08
06
07
0@
0?
0>
0=
0<
0;
00
01
02
03
04
05
0"
0#
0$
0%
0&
0'
#170000
b1 !
19
1@
1=
1<
1;
10
11
12
15
1"
1%
1&
1'
#180000
b11 !
b10 !
09
18
1:
0@
1>
0=
0<
01
02
13
05
0/
0(
0"
1$
0%
0&
#190000
b11 !
19
0>
1<
11
03
0$
1&
#200000
b111 !
b101 !
b100 !
09
08
16
1@
1=
0;
00
12
15
1"
1%
0'
#210000
b101 !
19
0@
1?
0=
02
14
05
0"
1#
0%
#220000
b111 !
b110 !
09
18
0<
01
0&
#230000
b111 !
19
0:
0?
1=
1<
1;
10
11
12
04
1/
1(
0#
1%
1&
1'
#240000
b1111 !
b1011 !
b1001 !
b1000 !
09
08
06
17
1:
0=
0<
0;
00
01
02
0/
0(
0%
0&
0'
#250000
b1001 !
19
1<
11
1&
#260000
b1011 !
b1010 !
09
18
0:
1@
1?
1>
1=
1;
10
12
13
14
15
1/
1(
1"
1#
1$
1%
1'
#270000
b1011 !
19
#280000
b1111 !
b1101 !
b1100 !
09
08
16
#290000
b1101 !
19
#300000
b1111 !
b1110 !
09
18
#310000
b1111 !
19
#320000
b111 !
b11 !
b1 !
b0 !
09
08
06
07
0@
0?
0>
0=
0<
0;
00
01
02
03
04
05
0"
0#
0$
0%
0&
0'
#330000
b1 !
19
1@
1=
1<
1;
10
11
12
15
1"
1%
1&
1'
#340000
b11 !
b10 !
09
18
1:
0@
1>
0=
0<
01
02
13
05
0/
0(
0"
1$
0%
0&
#350000
b11 !
19
0>
1<
11
03
0$
1&
#360000
b111 !
b101 !
b100 !
09
08
16
1@
1=
0;
00
12
15
1"
1%
0'
#370000
b101 !
19
0@
1?
0=
02
14
05
0"
1#
0%
#380000
b111 !
b110 !
09
18
0<
01
0&
#390000
b111 !
19
0:
0?
1=
1<
1;
10
11
12
04
1/
1(
0#
1%
1&
1'
#400000
b1111 !
b1011 !
b1001 !
b1000 !
09
08
06
17
1:
0=
0<
0;
00
01
02
0/
0(
0%
0&
0'
#410000
b1001 !
19
1<
11
1&
#420000
b1011 !
b1010 !
09
18
0:
1@
1?
1>
1=
1;
10
12
13
14
15
1/
1(
1"
1#
1$
1%
1'
#430000
b1011 !
19
#440000
b1111 !
b1101 !
b1100 !
09
08
16
#450000
b1101 !
19
#460000
b1111 !
b1110 !
09
18
#470000
b1111 !
19
#480000
b111 !
b11 !
b1 !
b0 !
09
08
06
07
0@
0?
0>
0=
0<
0;
00
01
02
03
04
05
0"
0#
0$
0%
0&
0'
#490000
b1 !
19
1@
1=
1<
1;
10
11
12
15
1"
1%
1&
1'
#500000
b11 !
b10 !
09
18
1:
0@
1>
0=
0<
01
02
13
05
0/
0(
0"
1$
0%
0&
#510000
b11 !
19
0>
1<
11
03
0$
1&
#520000
b111 !
b101 !
b100 !
09
08
16
1@
1=
0;
00
12
15
1"
1%
0'
#530000
b101 !
19
0@
1?
0=
02
14
05
0"
1#
0%
#540000
b111 !
b110 !
09
18
0<
01
0&
#550000
b111 !
19
0:
0?
1=
1<
1;
10
11
12
04
1/
1(
0#
1%
1&
1'
#560000
b1111 !
b1011 !
b1001 !
b1000 !
09
08
06
17
1:
0=
0<
0;
00
01
02
0/
0(
0%
0&
0'
#570000
b1001 !
19
1<
11
1&
#580000
b1011 !
b1010 !
09
18
0:
1@
1?
1>
1=
1;
10
12
13
14
15
1/
1(
1"
1#
1$
1%
1'
#590000
b1011 !
19
#600000
b1111 !
b1101 !
b1100 !
09
08
16
#610000
b1101 !
19
#620000
b1111 !
b1110 !
09
18
#630000
b1111 !
19
#640000
b111 !
b11 !
b1 !
b0 !
09
08
06
07
0@
0?
0>
0=
0<
0;
00
01
02
03
04
05
0"
0#
0$
0%
0&
0'
#650000
b1 !
19
1@
1=
1<
1;
10
11
12
15
1"
1%
1&
1'
#660000
b11 !
b10 !
09
18
1:
0@
1>
0=
0<
01
02
13
05
0/
0(
0"
1$
0%
0&
#670000
b11 !
19
0>
1<
11
03
0$
1&
#680000
b111 !
b101 !
b100 !
09
08
16
1@
1=
0;
00
12
15
1"
1%
0'
#690000
b101 !
19
0@
1?
0=
02
14
05
0"
1#
0%
#700000
b111 !
b110 !
09
18
0<
01
0&
#710000
b111 !
19
0:
0?
1=
1<
1;
10
11
12
04
1/
1(
0#
1%
1&
1'
#720000
b1111 !
b1011 !
b1001 !
b1000 !
09
08
06
17
1:
0=
0<
0;
00
01
02
0/
0(
0%
0&
0'
#730000
b1001 !
19
1<
11
1&
#740000
b1011 !
b1010 !
09
18
0:
1@
1?
1>
1=
1;
10
12
13
14
15
1/
1(
1"
1#
1$
1%
1'
#750000
b1011 !
19
#760000
b1111 !
b1101 !
b1100 !
09
08
16
#770000
b1101 !
19
#780000
b1111 !
b1110 !
09
18
#790000
b1111 !
19
#800000
b111 !
b11 !
b1 !
b0 !
09
08
06
07
0@
0?
0>
0=
0<
0;
00
01
02
03
04
05
0"
0#
0$
0%
0&
0'
#810000
b1 !
19
1@
1=
1<
1;
10
11
12
15
1"
1%
1&
1'
#820000
b11 !
b10 !
09
18
1:
0@
1>
0=
0<
01
02
13
05
0/
0(
0"
1$
0%
0&
#830000
b11 !
19
0>
1<
11
03
0$
1&
#840000
b111 !
b101 !
b100 !
09
08
16
1@
1=
0;
00
12
15
1"
1%
0'
#850000
b101 !
19
0@
1?
0=
02
14
05
0"
1#
0%
#860000
b111 !
b110 !
09
18
0<
01
0&
#870000
b111 !
19
0:
0?
1=
1<
1;
10
11
12
04
1/
1(
0#
1%
1&
1'
#880000
b1111 !
b1011 !
b1001 !
b1000 !
09
08
06
17
1:
0=
0<
0;
00
01
02
0/
0(
0%
0&
0'
#890000
b1001 !
19
1<
11
1&
#900000
b1011 !
b1010 !
09
18
0:
1@
1?
1>
1=
1;
10
12
13
14
15
1/
1(
1"
1#
1$
1%
1'
#910000
b1011 !
19
#920000
b1111 !
b1101 !
b1100 !
09
08
16
#930000
b1101 !
19
#940000
b1111 !
b1110 !
09
18
#950000
b1111 !
19
#960000
b111 !
b11 !
b1 !
b0 !
09
08
06
07
0@
0?
0>
0=
0<
0;
00
01
02
03
04
05
0"
0#
0$
0%
0&
0'
#970000
b1 !
19
1@
1=
1<
1;
10
11
12
15
1"
1%
1&
1'
#980000
b11 !
b10 !
09
18
1:
0@
1>
0=
0<
01
02
13
05
0/
0(
0"
1$
0%
0&
#990000
b11 !
19
0>
1<
11
03
0$
1&
